@startuml

title __SERIALIZER's Class Diagram__\n

  namespace  {
    namespace r.cnam.foad.nfa035.badges.wallet.fileutils.streaming {
      namespace serializer {
        abstract class fr.cnam.foad.nfa035.badges.wallet.fileutils.streaming.serializer.AbstractStreamingImageDeserializer {
            - sourceOutputStream : OutputStream
            + deserialize()
            + getSourceOutputStream()
            + setSourceOutputStream()
        }
      }
    }
  }
  

  namespace  {
    namespace r.cnam.foad.nfa035.badges.wallet.fileutils.streaming {
      namespace serializer {
        abstract class fr.cnam.foad.nfa035.badges.wallet.fileutils.streaming.serializer.AbstractStreamingImageSerializer {
            + serialize()
        }
      }
    }
  }
  

  namespace  {
    namespace r.cnam.foad.nfa035.badges.wallet.fileutils.streaming {
      namespace serializer {
        interface fr.cnam.foad.nfa035.badges.wallet.fileutils.streaming.serializer.BadgeDeserializer {
            {abstract} + deserialize()
            {abstract} + getSourceOutputStream()
            {abstract} + setSourceOutputStream()
        }
      }
    }
  }
  

  namespace  {
    namespace r.cnam.foad.nfa035.badges.wallet.fileutils.streaming {
      namespace serializer {
        interface fr.cnam.foad.nfa035.badges.wallet.fileutils.streaming.serializer.DatabaseDeserializer {
            {abstract} + getDeserializingStream()
        }
      }
    }
  }
  

  namespace  {
    namespace r.cnam.foad.nfa035.badges.wallet.fileutils.streaming {
      namespace serializer {
        interface fr.cnam.foad.nfa035.badges.wallet.fileutils.streaming.serializer.ImageStreamingDeserializer {
            {abstract} + getDeserializingStream()
        }
      }
    }
  }
  

  namespace  {
    namespace r.cnam.foad.nfa035.badges.wallet.fileutils.streaming {
      namespace serializer {
        interface fr.cnam.foad.nfa035.badges.wallet.fileutils.streaming.serializer.ImageStreamingSerializer {
            {abstract} + getSerializingStream()
            {abstract} + getSourceInputStream()
            {abstract} + serialize()
        }
      }
    }
  }
  

  fr.cnam.foad.nfa035.badges.wallet.fileutils.streaming.serializer.AbstractStreamingImageDeserializer .up.|> fr.cnam.foad.nfa035.badges.wallet.fileutils.streaming.serializer.ImageStreamingDeserializer
  fr.cnam.foad.nfa035.badges.wallet.fileutils.streaming.serializer.AbstractStreamingImageSerializer .up.|> fr.cnam.foad.nfa035.badges.wallet.fileutils.streaming.serializer.ImageStreamingSerializer


right footer


PlantUML diagram generated by SketchIt! (https://bitbucket.org/pmesmeur/sketch.it)
For more information about this tool, please contact philippe.mesmeur@gmail.com
endfooter

@enduml
