@startuml

title __SIMPLEACCESS's Class Diagram__\n

  namespace  {
    namespace r.cnam.foad.nfa035.badges.wallet.fileutils.simpleaccess {
      interface fr.cnam.foad.nfa035.badges.wallet.fileutils.simpleaccess.ImageSerializer {
          {abstract} + deserialize()
          {abstract} + serialize()
      }
    }
  }
  

  namespace  {
    namespace r.cnam.foad.nfa035.badges.wallet.fileutils.simpleaccess {
      class fr.cnam.foad.nfa035.badges.wallet.fileutils.simpleaccess.ImageSerializerBase64Impl {
          + deserialize()
          + serialize()
      }
    }
  }
  

  fr.cnam.foad.nfa035.badges.wallet.fileutils.simpleaccess.ImageSerializerBase64Impl .up.|> fr.cnam.foad.nfa035.badges.wallet.fileutils.simpleaccess.ImageSerializer


right footer


PlantUML diagram generated by SketchIt! (https://bitbucket.org/pmesmeur/sketch.it)
For more information about this tool, please contact philippe.mesmeur@gmail.com
endfooter

@enduml
